ForeCasting Methods Project
…
Time series Components

Now we will decompose the series into the seasonal components, the trend-cycle component and a remainder component. As the variations around the trend are of similar magnitudes over time, we will use an Additive Decomposition.

# Show components of land & ocean global average temperature

GlobalTemp %>%
  select(LandOceanAvgTemp) -> land_ocean_global_temp

dec <- land_ocean_global_temp %>% 
  model(stl = STL(LandOceanAvgTemp))

components(dec)

## # A dable: 1,992 x 7 [1M]
## # Key:     .model [1]
## # :        LandOceanAvgTemp = trend + season_year + remainder
##    .model     Date LandOceanAvgTemp trend season_year remainder season_adjust
##    <chr>     <mth>            <dbl> <dbl>       <dbl>     <dbl>         <dbl>
##  1 stl    1850 Jan             12.8  14.9      -1.81   -0.231            14.6
##  2 stl    1850 Feb             13.6  14.9      -1.55    0.266            15.1
##  3 stl    1850 Mrz             14.0  14.9      -0.970   0.139            15.0
##  4 stl    1850 Apr             14.7  14.9      -0.119  -0.0895           14.8
##  5 stl    1850 Mai             15.5  14.9       0.787  -0.157            14.7
##  6 stl    1850 Jun             16.4  14.9       1.48   -0.00645          14.9
##  7 stl    1850 Jul             16.8  14.9       1.86    0.0428           14.9
##  8 stl    1850 Aug             16.7  14.9       1.69    0.148            15.0
##  9 stl    1850 Sep             15.9  14.9       0.991   0.0139           14.9
## 10 stl    1850 Okt             14.8  14.9       0.102  -0.153            14.7
## # ... with 1,982 more rows

# Show components of land global average temperature

GlobalTemp %>%
  select(LandAvgTemp) -> land_global_temp

dec2 <- land_global_temp %>% 
  model(stl = STL(LandAvgTemp)) 

components(dec2)

## # A dable: 1,992 x 7 [1M]
## # Key:     .model [1]
## # :        LandAvgTemp = trend + season_year + remainder
##    .model     Date LandAvgTemp trend season_year remainder season_adjust
##    <chr>     <mth>       <dbl> <dbl>       <dbl>     <dbl>         <dbl>
##  1 stl    1850 Jan       0.749  7.85      -6.13     -0.975          6.87
##  2 stl    1850 Feb       3.07   7.87      -5.54      0.745          8.61
##  3 stl    1850 Mrz       4.95   7.88      -3.66      0.732          8.61
##  4 stl    1850 Apr       7.22   7.90      -0.494    -0.186          7.71
##  5 stl    1850 Mai      10.0    7.91       2.77     -0.675          7.24
##  6 stl    1850 Jun      13.2    7.93       5.11      0.114          8.04
##  7 stl    1850 Jul      14.5    7.95       6.34      0.205          8.15
##  8 stl    1850 Aug      14.0    7.96       5.59      0.491          8.45
##  9 stl    1850 Sep      11.5    7.97       3.37      0.157          8.13
## 10 stl    1850 Okt       8.09   7.99       0.646    -0.542          7.45
## # ... with 1,982 more rows
…
